{
  "login": {
    "token": "123134123123"
  },
  "logout": {},
  "forgot-password": {},
  "user": {
    "id": "1",
    "name": "Bastian Sinaga",
    "email": "test@mail.com",
    "password": "123",
    "class": "Pelatihan Penanggulangan Terorisme",
    "photo": "https://i.pravatar.cc/300"
  },
  "events": [
    {
      "date": "1 September 2025",
      "day": "Senin",
      "items": [
        {
          "id": 1,
          "name": "Ujian Tengah Semester",
          "type": "yellow",
          "times": {
            "start": "7.00 AM",
            "end": "3.00 PM"
          }
        }
      ]
    },
    {
      "date": "2 September 2025",
      "day": "Selasa",
      "items": [
        {
          "id": 1,
          "name": "Ujian Tengah Semester",
          "type": "yellow",
          "times": {
            "start": "7.00 AM",
            "end": "3.00 PM"
          }
        }
      ]
    },
    {
      "date": "3 September 2025",
      "day": "Rabu",
      "items": [
        {
          "id": 1,
          "name": "Ujian Tengah Semester",
          "type": "yellow",
          "times": {
            "start": "7.00 AM",
            "end": "3.00 PM"
          }
        }
      ]
    },
    {
      "date": "4 September 2025",
      "day": "Kamis",
      "items": [
        {
          "id": 1,
          "name": "Ujian Tengah Semester",
          "type": "yellow",
          "times": {
            "start": "7.00 AM",
            "end": "3.00 PM"
          }
        }
      ]
    },
    {
      "date": "5 September 2025",
      "day": "Jumat",
      "items": [
        {
          "id": 1,
          "name": "Cuti Bersama Maulid Nabi Muhammad",
          "type": "red"
        }
      ]
    },
    {
      "date": "8 September 2025",
      "day": "Senin",
      "items": [
        {
          "id": 1,
          "name": "Ujian Tengah Semester",
          "type": "yellow",
          "times": {
            "start": "7.00 AM",
            "end": "3.00 PM"
          }
        }
      ]
    }
  ],
  "students": {
    "total_present": 20,
    "total_absent": 5,
    "total_loa": 3,
    "students": [
      {
        "id": 1,
        "name": "Tanto Sunoto",
        "image": "https://i.pravatar.cc/300?img=1",
        "status": "present"
      },
      {
        "id": 2,
        "name": "Tatiana Mango",
        "image": "https://i.pravatar.cc/300?img=2",
        "status": "present"
      },
      {
        "id": 3,
        "name": "Paityn Dias",
        "image": "https://i.pravatar.cc/300?img=3",
        "status": "loa"
      },
      {
        "id": 4,
        "name": "Angel Lubin",
        "image": "https://i.pravatar.cc/300?img=4",
        "status": "present"
      },
      {
        "id": 5,
        "name": "Randy Arcand",
        "image": "https://i.pravatar.cc/300?img=5",
        "status": "loa"
      },
      {
        "id": 6,
        "name": "Jocelyn Siphron",
        "image": "https://i.pravatar.cc/300?img=6",
        "status": "present"
      },
      {
        "id": 7,
        "name": "Tanto Sunoto",
        "image": "https://i.pravatar.cc/300?img=7",
        "status": "present"
      },
      {
        "id": 8,
        "name": "Tatiana Mango",
        "image": "https://i.pravatar.cc/300?img=8",
        "status": "present"
      },
      {
        "id": 9,
        "name": "Paityn Dias",
        "image": "https://i.pravatar.cc/300?img=9",
        "status": "absent"
      },
      {
        "id": 10,
        "name": "Angel Lubin",
        "image": "https://i.pravatar.cc/300?img=10",
        "status": "present"
      },
      {
        "id": 11,
        "name": "Randy Arcand",
        "image": "https://i.pravatar.cc/300?img=11",
        "status": "present"
      },
      {
        "id": 12,
        "name": "Jocelyn Siphron",
        "image": "https://i.pravatar.cc/300?img=12",
        "status": "present"
      }
    ],
    "pagination": {
      "page": 1,
      "per_page": 12,
      "page_count": 20,
      "total_count": 240
    }
  }
}